1 Introduction to the Tidyverse | DataCamp
…
Ao rodar o código acima, nota-se que um aviso aparece dizendo que certas funções foram mascaradas. Isso significa ao chamar os pacotes, existiam funções com o mesmo nome do que as que já foram carregdas, e que essas mais recentes serão utilizadas pois aparecem primeiro na ordem de chamada do R. Pode er mais sobre isso em português no Scoping Rules - Symbol Binding

# Para verificar a ordem atual basta rodar a linha abaixo:
search()

##  [1] ".GlobalEnv"        "package:dplyr"     "package:gapminder"
##  [4] "package:stats"     "package:graphics"  "package:grDevices"
##  [7] "package:utils"     "package:datasets"  "package:methods"  
## [10] "Autoloads"         "package:base"

Abaixo uma visão exploratória dos dados que utilizaremos

gapminder

## # A tibble: 1,704 x 6
##    country     continent  year lifeExp      pop gdpPercap
##    <fct>       <fct>     <int>   <dbl>    <int>     <dbl>
##  1 Afghanistan Asia       1952    28.8  8425333      779.
##  2 Afghanistan Asia       1957    30.3  9240934      821.
##  3 Afghanistan Asia       1962    32.0 10267083      853.
##  4 Afghanistan Asia       1967    34.0 11537966      836.
##  5 Afghanistan Asia       1972    36.1 13079460      740.
##  6 Afghanistan Asia       1977    38.4 14880372      786.
##  7 Afghanistan Asia       1982    39.9 12881816      978.
##  8 Afghanistan Asia       1987    40.8 13867957      852.
##  9 Afghanistan Asia       1992    41.7 16317921      649.
## 10 Afghanistan Asia       1997    41.8 22227415      635.
## # … with 1,694 more rows
…
1.1.1 O verbo filtro: filter()

Utilizamos filter() quando queremos obter um subconjunto dos dados. Quando formos utilizar um verbo, sempre utilizamos um cano (pipe) %>%. Esse cano irá puxar o dado que vem antes e passar ele pelo verbo filtro.

# Abaixo estamos filtrando pelo ano 2007
gapminder %>%
  filter(year == 2007)

## # A tibble: 142 x 6
##    country     continent  year lifeExp       pop gdpPercap
##    <fct>       <fct>     <int>   <dbl>     <int>     <dbl>
##  1 Afghanistan Asia       2007    43.8  31889923      975.
##  2 Albania     Europe     2007    76.4   3600523     5937.
##  3 Algeria     Africa     2007    72.3  33333216     6223.
##  4 Angola      Africa     2007    42.7  12420476     4797.
##  5 Argentina   Americas   2007    75.3  40301927    12779.
##  6 Australia   Oceania    2007    81.2  20434176    34435.
##  7 Austria     Europe     2007    79.8   8199783    36126.
##  8 Bahrain     Asia       2007    75.6    708573    29796.
##  9 Bangladesh  Asia       2007    64.1 150448339     1391.
## 10 Belgium     Europe     2007    79.4  10392226    33693.
## # … with 132 more rows
…
## # A tibble: 1 x 6
##   country continent  year lifeExp       pop gdpPercap
##   <fct>   <fct>     <int>   <dbl>     <int>     <dbl>
## 1 Brazil  Americas   2007    72.4 190010647     9066.

1.1.2 O verbo arranjar: arrange()

O verbo arrange reordena as observações de uma base de dados de forma ascendente ou descendente (default) com base em um dos seus parâmetros.

# Ascendente
gapminder %>%
  arrange(gdpPercap)

## # A tibble: 1,704 x 6
##    country          continent  year lifeExp      pop gdpPercap
##    <fct>            <fct>     <int>   <dbl>    <int>     <dbl>
##  1 Congo, Dem. Rep. Africa     2002    45.0 55379852      241.
##  2 Congo, Dem. Rep. Africa     2007    46.5 64606759      278.
##  3 Lesotho          Africa     1952    42.1   748747      299.
##  4 Guinea-Bissau    Africa     1952    32.5   580653      300.
##  5 Congo, Dem. Rep. Africa     1997    42.6 47798986      312.
##  6 Eritrea          Africa     1952    35.9  1438760      329.
##  7 Myanmar          Asia       1952    36.3 20092996      331 
##  8 Lesotho          Africa     1957    45.0   813338      336.
##  9 Burundi          Africa     1952    39.0  2445618      339.
## 10 Eritrea          Africa     1957    38.0  1542611      344.
## # … with 1,694 more rows

# Descendente
gapminder %>%
  arrange(desc(gdpPercap))

## # A tibble: 1,704 x 6
##    country   continent  year lifeExp     pop gdpPercap
##    <fct>     <fct>     <int>   <dbl>   <int>     <dbl>
##  1 Kuwait    Asia       1957    58.0  212846   113523.
##  2 Kuwait    Asia       1972    67.7  841934   109348.
##  3 Kuwait    Asia       1952    55.6  160000   108382.
##  4 Kuwait    Asia       1962    60.5  358266    95458.
##  5 Kuwait    Asia       1967    64.6  575003    80895.
##  6 Kuwait    Asia       1977    69.3 1140357    59265.
##  7 Norway    Europe     2007    80.2 4627926    49357.
##  8 Kuwait    Asia       2007    77.6 2505559    47307.
##  9 Singapore Asia       2007    80.0 4553009    47143.
## 10 Norway    Europe     2002    79.0 4535591    44684.
## # … with 1,694 more rows

1.1.3 Utilizando mais de um verbo

Aqui utilizaremos uma série de canalização, passando os dados pelo primeiro filtramos os dados que queremos, depois, passando pelo segundo encanamento, ordenamos os dados de acordo com o parâmetro de nossa escolha.

gapminder %>%
  filter(year == 2007) %>%
  arrange(desc(gdpPercap))

## # A tibble: 142 x 6
##    country          continent  year lifeExp       pop gdpPercap
##    <fct>            <fct>     <int>   <dbl>     <int>     <dbl>
##  1 Norway           Europe     2007    80.2   4627926    49357.
##  2 Kuwait           Asia       2007    77.6   2505559    47307.
##  3 Singapore        Asia       2007    80.0   4553009    47143.
##  4 United States    Americas   2007    78.2 301139947    42952.
##  5 Ireland          Europe     2007    78.9   4109086    40676.
##  6 Hong Kong, China Asia       2007    82.2   6980412    39725.
##  7 Switzerland      Europe     2007    81.7   7554661    37506.
##  8 Netherlands      Europe     2007    79.8  16570613    36798.
##  9 Canada           Americas   2007    80.7  33390141    36319.
## 10 Iceland          Europe     2007    81.8    301931    36181.
## # … with 132 more rows

1.1.4 O verbo mutar: mutate()

Supomos que queiro alterar ou adicionar uma variável/parâmetro do banco de dados, para isso utilizaremos mutate().

# População será alterado para população / 1000000
gapminder %>%
  mutate(pop = pop / 1000000)

## # A tibble: 1,704 x 6
##    country     continent  year lifeExp   pop gdpPercap
##    <fct>       <fct>     <int>   <dbl> <dbl>     <dbl>
##  1 Afghanistan Asia       1952    28.8  8.43      779.
##  2 Afghanistan Asia       1957    30.3  9.24      821.
##  3 Afghanistan Asia       1962    32.0 10.3       853.
##  4 Afghanistan Asia       1967    34.0 11.5       836.
##  5 Afghanistan Asia       1972    36.1 13.1       740.
##  6 Afghanistan Asia       1977    38.4 14.9       786.
##  7 Afghanistan Asia       1982    39.9 12.9       978.
##  8 Afghanistan Asia       1987    40.8 13.9       852.
##  9 Afghanistan Asia       1992    41.7 16.3       649.
## 10 Afghanistan Asia       1997    41.8 22.2       635.
## # … with 1,694 more rows

# Abaixo criamos a variável gdp (a nova variável não pode conter espaços no nome)
gapminder %>%
  mutate(gdp = gdpPercap * pop)

## # A tibble: 1,704 x 7
##    country     continent  year lifeExp      pop gdpPercap          gdp
##    <fct>       <fct>     <int>   <dbl>    <int>     <dbl>        <dbl>
##  1 Afghanistan Asia       1952    28.8  8425333      779.  6567086330.
##  2 Afghanistan Asia       1957    30.3  9240934      821.  7585448670.
##  3 Afghanistan Asia       1962    32.0 10267083      853.  8758855797.
##  4 Afghanistan Asia       1967    34.0 11537966      836.  9648014150.
##  5 Afghanistan Asia       1972    36.1 13079460      740.  9678553274.
##  6 Afghanistan Asia       1977    38.4 14880372      786. 11697659231.
##  7 Afghanistan Asia       1982    39.9 12881816      978. 12598563401.
##  8 Afghanistan Asia       1987    40.8 13867957      852. 11820990309.
##  9 Afghanistan Asia       1992    41.7 16317921      649. 10595901589.
## 10 Afghanistan Asia       1997    41.8 22227415      635. 14121995875.
## # … with 1,694 more rows

1.2 Data Visualization

Utilizaremos o pacote ggplot2 em conjunto com dplyr para gerar gráficos. Para gerar as visualizações das informações que achamos interessante, primeiro precisamos de aplicar a nossa manipulação dos dados a uma variável, como a seguir:

gapminder_2007 <- gapminder %>%
  filter(year == 2007)

gapminder_2007

## # A tibble: 142 x 6
##    country     continent  year lifeExp       pop gdpPercap
##    <fct>       <fct>     <int>   <dbl>     <int>     <dbl>
##  1 Afghanistan Asia       2007    43.8  31889923      975.
##  2 Albania     Europe     2007    76.4   3600523     5937.
##  3 Algeria     Africa     2007    72.3  33333216     6223.
##  4 Angola      Africa     2007    42.7  12420476     4797.
##  5 Argentina   Americas   2007    75.3  40301927    12779.
##  6 Australia   Oceania    2007    81.2  20434176    34435.
##  7 Austria     Europe     2007    79.8   8199783    36126.
##  8 Bahrain     Asia       2007    75.6    708573    29796.
##  9 Bangladesh  Asia       2007    64.1 150448339     1391.
## 10 Belgium     Europe     2007    79.4  10392226    33693.
## # … with 132 more rows
…
Tendo essa tabela, talvez esteja curioso sobre como fazer uma para cada ano? Podemos fazer isso escolhendo agrupar por ano e continente. Ou seja, primeiro as observações são agrupadas pelo primeiro parâmetro e dentro desse agrupamento, são agrupados pelo segundo.

gapminder %>%
  group_by(year, continent) %>%
  summarize(mediaLifeExp = mean(lifeExp), totalpop = sum(as.numeric(pop)))

## # A tibble: 60 x 4
## # Groups:   year [12]
##     year continent mediaLifeExp   totalpop
##    <int> <fct>            <dbl>      <dbl>
##  1  1952 Africa            39.1  237640501
##  2  1952 Americas          53.3  345152446
##  3  1952 Asia              46.3 1395357351
##  4  1952 Europe            64.4  418120846
##  5  1952 Oceania           69.3   10686006
##  6  1957 Africa            41.3  264837738
##  7  1957 Americas          56.0  386953916
##  8  1957 Asia              49.3 1562780599
##  9  1957 Europe            66.7  437890351
## 10  1957 Oceania           70.3   11941976
## # … with 50 more rows
…
